(footprint "Encoder" (version 20221018) (generator pcbnew)
  (layer "F.Cu")
  (attr through_hole)
  (fp_text reference "REF**" (at 0 -2.794 unlocked) (layer "F.SilkS")
      (effects (font (size 1 1) (thickness 0.1)))
    (tstamp 982156c6-393d-48f3-ae42-4dd2327a9289)
  )
  (fp_text value "Encoder" (at 0 2.54 unlocked) (layer "F.Fab")
      (effects (font (size 1 1) (thickness 0.15)))
    (tstamp 63bb7d0d-5daa-4240-9a33-96cf42ff9c82)
  )
  (fp_text user "${REFERENCE}" (at 0 4.064 unlocked) (layer "F.Fab")
      (effects (font (size 1 1) (thickness 0.15)))
    (tstamp 43b9254e-3b40-4ba4-a400-3a8183fa8904)
  )
  (fp_text user "${REFERENCE}" (at -0.022 -0.022) (layer "F.Fab")
      (effects (font (size 1 1) (thickness 0.15)))
    (tstamp bdbf4b94-6ae7-4502-9db6-99414189f0d0)
  )
  (fp_line (start -6.432 -1.352) (end -6.432 1.308)
    (stroke (width 0.12) (type solid)) (layer "F.SilkS") (tstamp c6b5f8c2-46f5-4e94-8292-829529ec0533))
  (fp_line (start 3.788 -1.352) (end -6.432 -1.352)
    (stroke (width 0.12) (type solid)) (layer "F.SilkS") (tstamp 45689049-681f-4200-9e82-b18838c8bd00))
  (fp_line (start 3.788 -1.352) (end 3.788 1.308)
    (stroke (width 0.12) (type solid)) (layer "F.SilkS") (tstamp 6a727e69-b697-4368-85e8-c036d4a6129d))
  (fp_line (start 3.788 1.308) (end -6.432 1.308)
    (stroke (width 0.12) (type solid)) (layer "F.SilkS") (tstamp 6c5fd10d-4f8d-421a-8dcf-ba0d7efbe544))
  (fp_line (start 5.058 -1.352) (end 6.388 -1.352)
    (stroke (width 0.12) (type solid)) (layer "F.SilkS") (tstamp 39d0b139-a511-4ccf-9d0c-fcecd4329d9d))
  (fp_line (start 6.388 -1.352) (end 6.388 -0.022)
    (stroke (width 0.12) (type solid)) (layer "F.SilkS") (tstamp 79de4346-6128-47af-891e-8cd227a0600c))
  (fp_line (start -10 -1.822) (end -10 1.778)
    (stroke (width 0.05) (type solid)) (layer "F.CrtYd") (tstamp d3476298-6bbe-4068-a94f-b50583a40c14))
  (fp_line (start -10 1.778) (end 9 1.778)
    (stroke (width 0.05) (type solid)) (layer "F.CrtYd") (tstamp 4f0d09e0-9cd0-41aa-926f-33c9002b1cdc))
  (fp_line (start 9 -1.822) (end -10 -1.822)
    (stroke (width 0.05) (type solid)) (layer "F.CrtYd") (tstamp 2730b251-16ba-4610-a0a1-6deefe4ac469))
  (fp_line (start 9 1.778) (end 9 -1.822)
    (stroke (width 0.05) (type solid)) (layer "F.CrtYd") (tstamp 9e61f032-adb2-42a2-baa2-c5cbc61b2b1c))
  (fp_line (start -6.372 -1.292) (end 5.693 -1.292)
    (stroke (width 0.1) (type solid)) (layer "F.Fab") (tstamp 7321f499-5d2b-41c7-9daa-9281d56ee326))
  (fp_line (start -6.372 1.248) (end -6.372 -1.292)
    (stroke (width 0.1) (type solid)) (layer "F.Fab") (tstamp 02e193d1-937e-49ff-9429-41406d933999))
  (fp_line (start 5.693 -1.292) (end 6.328 -0.657)
    (stroke (width 0.1) (type solid)) (layer "F.Fab") (tstamp 1f58c19b-4a14-47fc-b5a6-d6264f683e8d))
  (fp_line (start 6.328 -0.657) (end 6.328 1.248)
    (stroke (width 0.1) (type solid)) (layer "F.Fab") (tstamp cb4e518c-65d6-49b7-bf99-95050a9be423))
  (fp_line (start 6.328 1.248) (end -6.372 1.248)
    (stroke (width 0.1) (type solid)) (layer "F.Fab") (tstamp 97e4ef27-611f-4674-b7f7-fc2a1a8afd8e))
  (pad "1" thru_hole rect (at 5.058 -0.022 270) (size 1.7 1.7) (drill 1) (layers "*.Cu" "*.Mask") (tstamp e0c0f23c-dc87-4052-8f1c-83a7cabf9812))
  (pad "2" thru_hole oval (at 2.518 -0.022 270) (size 1.7 1.7) (drill 1) (layers "*.Cu" "*.Mask") (tstamp 8e35fdb6-4ecb-4371-97f1-8f5eda1af35f))
  (pad "3" thru_hole oval (at -0.022 -0.022 270) (size 1.7 1.7) (drill 1) (layers "*.Cu" "*.Mask") (tstamp 083e5274-0a67-4c27-8d75-45997d080610))
  (pad "4" thru_hole oval (at -2.562 -0.022 270) (size 1.7 1.7) (drill 1) (layers "*.Cu" "*.Mask") (tstamp 3e9dddee-0458-4401-a2be-1481e28846b6))
  (pad "5" thru_hole oval (at -5.102 -0.022 270) (size 1.7 1.7) (drill 1) (layers "*.Cu" "*.Mask") (tstamp 3dd609a4-b9c2-4ea1-a524-2b4bd7664732))
  (model "${FALCO_3DMODEL_DIR}/falco_encoder.3dshapes/KY-040 Rotary Encoder.STEP"
    (offset (xyz -5 7 28.2))
    (scale (xyz 1 1 1))
    (rotate (xyz -180 0 0))
  )
)
