(footprint "TFTdisplay" (version 20221018) (generator pcbnew)
  (layer "F.Cu")
  (attr through_hole)
  (fp_text reference "REF**" (at 0 -2.54 unlocked) (layer "F.SilkS")
      (effects (font (size 1 1) (thickness 0.1)))
    (tstamp ce779918-2d43-4dca-8924-6cb8748a583a)
  )
  (fp_text value "TFTdisplay" (at 0 2.54 unlocked) (layer "F.Fab")
      (effects (font (size 1 1) (thickness 0.15)))
    (tstamp ed53fd44-5cd4-4ee4-b3b2-3c11e9882cfd)
  )
  (fp_text user "${REFERENCE}" (at 0 5.08 unlocked) (layer "F.Fab")
      (effects (font (size 1 1) (thickness 0.15)))
    (tstamp 7e347520-efc3-4042-950a-f43d13108904)
  )
  (fp_text user "${REFERENCE}" (at 0 0) (layer "F.Fab")
      (effects (font (size 1 1) (thickness 0.15)))
    (tstamp b665b7c4-d6a8-412c-b395-c53d2bd13a93)
  )
  (fp_line (start -14.03 -1.33) (end -14.03 1.33)
    (stroke (width 0.12) (type solid)) (layer "F.SilkS") (tstamp 82cf013e-44c4-4667-a6be-bdde88612f76))
  (fp_line (start 11.43 -1.33) (end -14.03 -1.33)
    (stroke (width 0.12) (type solid)) (layer "F.SilkS") (tstamp b443a0cd-c6d8-4d51-af73-9f4a2c326c81))
  (fp_line (start 11.43 -1.33) (end 11.43 1.33)
    (stroke (width 0.12) (type solid)) (layer "F.SilkS") (tstamp a4ef2e2b-fcd9-4ab4-86fa-4c2b64d60c36))
  (fp_line (start 11.43 1.33) (end -14.03 1.33)
    (stroke (width 0.12) (type solid)) (layer "F.SilkS") (tstamp cd567b20-6cf0-4bef-a559-19be231a8fd7))
  (fp_line (start 12.7 -1.33) (end 14.03 -1.33)
    (stroke (width 0.12) (type solid)) (layer "F.SilkS") (tstamp f9a5fcb4-434c-4b30-80b2-47373c1c24a8))
  (fp_line (start 14.03 -1.33) (end 14.03 0)
    (stroke (width 0.12) (type solid)) (layer "F.SilkS") (tstamp bbe3b2d3-2712-462e-9951-84ff68e81f1b))
  (fp_line (start -20 -1.8) (end -20 1.8)
    (stroke (width 0.05) (type solid)) (layer "F.CrtYd") (tstamp dea4fdc3-c47e-440b-ae10-89f4d6706af4))
  (fp_line (start -20 1.8) (end 20 1.8)
    (stroke (width 0.05) (type solid)) (layer "F.CrtYd") (tstamp 81a08a99-aa80-4e91-8948-387fde4a401f))
  (fp_line (start 20 -1.8) (end -20 -1.8)
    (stroke (width 0.05) (type solid)) (layer "F.CrtYd") (tstamp 0fe53fa7-d728-4e15-80dc-23b1e613c9e9))
  (fp_line (start 20 1.8) (end 20 -1.8)
    (stroke (width 0.05) (type solid)) (layer "F.CrtYd") (tstamp 9f8b4420-c58b-49d8-b1b2-5b762923d50c))
  (fp_line (start -13.97 -1.27) (end 13.335 -1.27)
    (stroke (width 0.1) (type solid)) (layer "F.Fab") (tstamp 56d748ca-6d81-4b75-afc4-04e9c36f8d3c))
  (fp_line (start -13.97 1.27) (end -13.97 -1.27)
    (stroke (width 0.1) (type solid)) (layer "F.Fab") (tstamp 41fafca1-eea2-4f60-9668-8ac5e14ac477))
  (fp_line (start 13.335 -1.27) (end 13.97 -0.635)
    (stroke (width 0.1) (type solid)) (layer "F.Fab") (tstamp fa2898e6-c9e7-4a80-99a7-d1d8315743a0))
  (fp_line (start 13.97 -0.635) (end 13.97 1.27)
    (stroke (width 0.1) (type solid)) (layer "F.Fab") (tstamp e02f10fd-5ad8-4d8c-8c81-748d5fa2dbb2))
  (fp_line (start 13.97 1.27) (end -13.97 1.27)
    (stroke (width 0.1) (type solid)) (layer "F.Fab") (tstamp 3b072e3a-f339-4559-9254-91a9bacf6074))
  (pad "1" thru_hole rect (at 12.7 0 270) (size 1.7 1.7) (drill 1) (layers "*.Cu" "*.Mask") (tstamp f4450ab8-e864-472f-93da-77591962be28))
  (pad "2" thru_hole oval (at 10.16 0 270) (size 1.7 1.7) (drill 1) (layers "*.Cu" "*.Mask") (tstamp 430745ed-4964-4050-bc0b-251ec456147d))
  (pad "3" thru_hole oval (at 7.62 0 270) (size 1.7 1.7) (drill 1) (layers "*.Cu" "*.Mask") (tstamp 5c94d5cf-c1df-435b-b17a-a339ac60723f))
  (pad "4" thru_hole oval (at 5.08 0 270) (size 1.7 1.7) (drill 1) (layers "*.Cu" "*.Mask") (tstamp ba877154-a484-4c81-83e0-686c36a2f24d))
  (pad "5" thru_hole oval (at 2.54 0 270) (size 1.7 1.7) (drill 1) (layers "*.Cu" "*.Mask") (tstamp 7c00beb0-94a8-4742-b714-970dd713e125))
  (pad "6" thru_hole oval (at 0 0 270) (size 1.7 1.7) (drill 1) (layers "*.Cu" "*.Mask") (tstamp f6edf34f-eee1-41ef-a9d8-a42648be09fc))
  (pad "7" thru_hole oval (at -2.54 0 270) (size 1.7 1.7) (drill 1) (layers "*.Cu" "*.Mask") (tstamp b2a1d0ac-5132-44af-80ae-7b85087a55d6))
  (pad "8" thru_hole oval (at -5.08 0 270) (size 1.7 1.7) (drill 1) (layers "*.Cu" "*.Mask") (tstamp bbc6409f-f21f-41fa-b664-51fd44d3826c))
  (pad "9" thru_hole oval (at -7.62 0 270) (size 1.7 1.7) (drill 1) (layers "*.Cu" "*.Mask") (tstamp 33ccd02c-4153-400d-8b1e-9d08d1cfdbbe))
  (pad "10" thru_hole oval (at -10.16 0 270) (size 1.7 1.7) (drill 1) (layers "*.Cu" "*.Mask") (tstamp ee16cc75-991f-4b60-b446-6246dc6784bb))
  (pad "11" thru_hole oval (at -12.7 0 270) (size 1.7 1.7) (drill 1) (layers "*.Cu" "*.Mask") (tstamp 8de06106-26b0-4392-bd52-173bdf558a69))
  (model "${FALCO_3DMODEL_DIR}/falco_tft.3dshapes/tft-Body.step"
    (offset (xyz 0 -2 34))
    (scale (xyz 1 1 1))
    (rotate (xyz -90 -90 0))
  )
)
